[
  {
    "id": "0",
    "name": "Couleurs chaudes",
    "todo": "button-question-orange.png",
    "checked": "checked_red.png",
    "locked": "locked.png"
  },

  {
    "id": "1",
    "name": "Couleurs tièdes",
    "todo": "button-question-red.png",
    "checked": "button-check-yellow.png",
    "locked": "locked.png"
  },

  {
    "id": "2",
    "name": "Couleurs contrastées",
    "todo": "button-question-orange.png",
    "checked": "button-check-yellow.png",
    "locked": "button-lock-purple.png"
  },

  {
    "id": "3",
    "name": "Couleurs froides",
    "todo": "button-question-yellow.png",
    "checked": "button-check-blue2.png",
    "locked": "button-lock-white.png"
  },

  {
    "id": "4",
    "name": "Vert/Orange/bleu",
    "todo": "button-question-green.png",
    "checked": "button-check-orange.png",
    "locked": "button-lock-blue.png"
  },

  {
    "id": "5",
    "name": "Rouge/vert/bleu",
    "todo": "button-question-red.png",
    "checked": "validation_green.png",
    "locked": "button-lock-blue.png"
  },

  {
    "id": "6",
    "name": "Etoiles",
    "todo": "button-question-star.png",
    "checked": "button-check-star.png",
    "locked": "button-lock-star.png"
  },

  {
    "id": "7",
    "name": "Toques",
    "todo": "questionmark_toque.png",
    "checked": "validation_toque.png",
    "locked": "locked_toque.png"
  },

  {
    "id": "8",
    "name": "Tableau",
    "todo": "button-question-tableau.png",
    "checked": "button-check-tableau.png",
    "locked": "button-lock-tableau.png"
  },

  {
    "id": "9",
    "name": "CDI",
    "todo": "button-question-paper.png",
    "checked": "button-check-paper.png",
    "locked": "button-lock-paper.png"
  },

  {
    "id": "10",
    "name": "Standard",
    "todo": "questionmark.png",
    "checked": "checked.png",
    "locked": "locked.png"
  },

  {
    "id": "11",
    "name": "Standard - variante",
    "todo": "questionmark.png",
    "checked": "checkedpurple.png",
    "locked": "locked.png"
  },

  {
    "id": "12",
    "name": "Ile",
    "todo": "button-question-orange.png",
    "checked": "button-check-green2.png",
    "locked": "locked.png"
  },

  {
    "id": "13",
    "name": "Sorcellerie",
    "todo": "button-question-green.png",
    "checked": "checkedpurple.png",
    "locked": "locked.png"
  },

  {
    "id": "14",
    "name": "Parchemin",
    "todo": "questionmark_mauve.png",
    "checked": "validation_green.png",
    "locked": "locked.png"
  },

  {
    "id": "15",
    "name": "Chimie",
    "todo": "questionmark.png",
    "checked": "checked_red.png",
    "locked": "locked.png"
  },

  {
    "id": "16",
    "name": "Vous êtes ici",
    "todo": "button-question-imhere.png",
    "checked": "button-check-imhere.png",
    "locked": "button-lock-imhere.png"
  },

  {
    "id": "17",
    "name": "Judo",
    "todo": "button-question-judo.png",
    "checked": "button-check-judo.png",
    "locked": "button-lock-judo.png"
  },

  {
    "id": "18",
    "name": "Judo 2",
    "todo": "button-question-judo2.png",
    "checked": "button-check-judo2.png",
    "locked": "button-lock-judo2.png"
  }
]